<?xml version="1.0" encoding="UTF-8"?>
<svg width="19px" height="20px" viewBox="0 0 19 20" version="1.1" xmlns="http://www.w3.org/2000/svg" xmlns:xlink="http://www.w3.org/1999/xlink">
    <!-- Generator: Sketch 54.1 (76490) - https://sketchapp.com -->
    <title>download-black-icon</title>
    <desc>Created with Sketch.</desc>
    <g id="Page-1" stroke="none" stroke-width="1" fill="none" fill-rule="evenodd">
        <g id="download-black-icon" fill="#1F1F1F" fill-rule="nonzero">
            <path d="M14.9438991,9.11625 C14.8426483,8.8925 14.6201467,8.75 14.3751449,8.75 L11.8751267,8.75 L11.8751267,0.625 C11.8751267,0.28 11.5951247,0 11.2501222,0 L8.75010395,0 C8.40510144,0 8.1250994,0.28 8.1250994,0.625 L8.1250994,8.75 L5.62508119,8.75 C5.3800794,8.75 5.15757778,8.89375 5.05632705,9.11625 C4.9538263,9.34 4.99382659,9.60125 5.15507777,9.78625 L9.53010963,14.78625 C9.6488605,14.9225 9.82011174,15 10.0001131,15 C10.1801144,15 10.3513656,14.92125 10.4701165,14.78625 L14.8451483,9.78625 C15.0076495,9.6025 15.0451498,9.34 14.9438991,9.11625 Z" id="Path"></path>
            <path d="M16.4666667,14 L16.4666667,17.6 L2.53333333,17.6 L2.53333333,14 L0,14 L0,18.8 C0,19.4636 0.567466667,20 1.26666667,20 L17.7333333,20 C18.4338,20 19,19.4636 19,18.8 L19,14 L16.4666667,14 Z" id="Path"></path>
        </g>
    </g>
</svg>